…
## RBPbase

To annotate RBPs we’ll use the RBPbase database
(<https://apps.embl.de/rbpbase/>).

Import the RBPbase database.

``` r
RBPbase.human <- read_tsv("Data/RBPbase_RBP_Database.tsv")

RBPbase.human
```

    ## # A tibble: 56,641 × 161
    ##    UNIQUE    ID        Description Hs_HEK293-RIC\nRBPBA…¹ Hs_HuH7-RIC\nRBPBASE…²
    ##    <chr>     <chr>     <chr>       <chr>                  <chr>                 
    ##  1 5_8S_rRNA ENSG0000… 5.8S ribos… no                     no                    
    ##  2 5S_rRNA   ENSG0000… 5S ribosom… no                     no                    
    ##  3 7SK       ENSG0000… 7SK RNA [S… no                     no                    
    ##  4 A1BG      ENSG0000… alpha-1-B … no                     no                    
    ##  5 A1BG-AS1  ENSG0000… A1BG antis… no                     no                    
    ##  6 A1CF      ENSG0000… APOBEC1 co… no                     YES                   
    ##  7 A2M       ENSG0000… alpha-2-ma… no                     no                    
    ##  8 A2M-AS1   ENSG0000… A2M antise… no                     no                    
    ##  9 A2ML1     ENSG0000… alpha-2-ma… no                     no                    
    ## 10 A2ML1-AS1 ENSG0000… A2ML1 anti… no                     no                    
    ## # ℹ 56,631 more rows
    ## # ℹ abbreviated names: ¹​`Hs_HEK293-RIC\nRBPBASE000000007.1`,
    ## #   ²​`Hs_HuH7-RIC\nRBPBASE000000008.1`
    ## # ℹ 156 more variables: `Hs_HeLa-RIC\nRBPBASE000000009.1` <chr>,
    ## #   `Hs_HeLa-RBDmap\nRBPBASE000000010.1` <chr>,
    ## #   `Hs_K562-serIC-chr\nRBPBASE000000011.1` <chr>,
    ## #   `Hs_K562-serIC\nRBPBASE000000012.1` <chr>, …
…
``` r
RBPbase.human  %>% 
  rename(swissprot.id = `UnitProtSwissProtID-Hs\nRBPANNO000000043.1`, TF.hs = `TF-Hs\nRBPANNO000000072.1`, 
         has.RBD.pfam = `hasRBD-Pfam-Hs\nRBPANNO000000017.1`, has.RBD.GO = `RNAbinding-GO-Hs\nRBPANNO000000038.1`, 
         pfam = `Pfam-Id-Hs\nRBPANNO000000046.1`, pfam.desc = `Pfam-Description-Hs\nRBPANNO000000048.1`) %>% 
  select(UNIQUE, swissprot.id, starts_with("Hs"), TF.hs, has.RBD.pfam, has.RBD.GO, pfam, pfam.desc) %>% 
  na.omit() %>% 
  mutate(across(starts_with("Hs"), ~case_when(. == "YES" ~ TRUE, TRUE ~ FALSE))) %>% 
  pivot_longer(cols = starts_with("Hs"), names_to = "Experiment", values_to = "Found") -> RBPbase.human

RBPbase.human
```

    ## # A tibble: 427,290 × 9
    ##    UNIQUE swissprot.id TF.hs has.RBD.pfam has.RBD.GO pfam   pfam.desc Experiment
    ##    <chr>  <chr>        <chr> <chr>        <chr>      <chr>  <chr>     <chr>     
    ##  1 A1BG   P04217       no    no           no         PF138… Immunogl… "Hs_HEK29…
    ##  2 A1BG   P04217       no    no           no         PF138… Immunogl… "Hs_HuH7-…
    ##  3 A1BG   P04217       no    no           no         PF138… Immunogl… "Hs_HeLa-…
    ##  4 A1BG   P04217       no    no           no         PF138… Immunogl… "Hs_HeLa-…
    ##  5 A1BG   P04217       no    no           no         PF138… Immunogl… "Hs_K562-…
    ##  6 A1BG   P04217       no    no           no         PF138… Immunogl… "Hs_K562-…
    ##  7 A1BG   P04217       no    no           no         PF138… Immunogl… "Hs_HeLa-…
    ##  8 A1BG   P04217       no    no           no         PF138… Immunogl… "Hs_HEK29…
    ##  9 A1BG   P04217       no    no           no         PF138… Immunogl… "Hs_micro…
    ## 10 A1BG   P04217       no    no           no         PF138… Immunogl… "Hs_JURKA…
    ## # ℹ 427,280 more rows
    ## # ℹ 1 more variable: Found <lgl>

Calculate for each swissprot entry in how many experiments it was found.

``` r
RBPbase.human %>% 
  group_by(swissprot.id) %>% 
  summarise(number.RBP.exps = sum(Found)) %>% 
  left_join(RBPbase.human, by = "swissprot.id") %>% 
  select(!c(Experiment, Found)) %>% 
  distinct(swissprot.id, .keep_all = T) -> evidence.RBPs

evidence.RBPs
```

    ## # A tibble: 14,150 × 8
    ##    swissprot.id number.RBP.exps UNIQUE  TF.hs has.RBD.pfam has.RBD.GO pfam      
    ##    <chr>                  <int> <chr>   <chr> <chr>        <chr>      <chr>     
    ##  1 A0A075B759                 0 PPIAL4E no    no           no         PF00160   
    ##  2 A0A087WTH5                 0 KCNE1B  no    no           no         PF02060   
    ##  3 A0A087WUL8                 0 NBPF19  no    no           no         PF06758|P…
    ##  4 A0A087WVF3                 0 TBC1D3D no    no           no         PF00566   
    ##  5 A0A087WXS9                 0 TBC1D3I no    no           no         PF00566   
    ##  6 A0A087X179                 0 TBC1D3E no    no           no         PF00566   
    ##  7 A0A087X1C5                 0 CYP2D7  no    no           no         PF00067   
    ##  8 A0A087X1G2                 0 TBC1D3K no    no           no         PF00566   
    ##  9 A0A096LP55                 0 UQCRHL  no    no           no         PF02320   
    ## 10 A0A0B4J2A2                 0 PPIAL4C no    no           no         PF00160   
    ## # ℹ 14,140 more rows
    ## # ℹ 1 more variable: pfam.desc <chr>

## HOCOMOCO & JASPAR

To annotate DBPs, we’ll use the transcription factor databases JASPAR
and MOCOMOCO.

Import the HOCOMOCO database.

``` r
HM.TFs <- read_tsv("Data/HOCOMOCO_TF_Database.tsv")

HM.TFs
```

    ## # A tibble: 772 × 13
    ##    Model       LOGO  `Transcription factor` `Model length` Quality `Data source`
    ##    <chr>       <lgl> <chr>                           <dbl> <chr>   <chr>        
    ##  1 AHR_HUMAN.… NA    HUMAN:AHR                           9 B       Integrative  
    ##  2 AIRE_HUMAN… NA    HUMAN:AIRE                         18 C       Integrative  
    ##  3 ALX1_HUMAN… NA    HUMAN:ALX1                         12 B       Integrative  
    ##  4 ALX3_HUMAN… NA    HUMAN:ALX3                         11 D       HT-SELEX     
    ##  5 ALX4_HUMAN… NA    HUMAN:ALX4                         12 D       HT-SELEX     
    ##  6 ANDR_HUMAN… NA    HUMAN:AR                           18 A       ChIP-Seq     
    ##  7 ANDR_HUMAN… NA    HUMAN:AR                           16 A       ChIP-Seq     
    ##  8 ANDR_HUMAN… NA    HUMAN:AR                           12 A       ChIP-Seq     
    ##  9 AP2A_HUMAN… NA    HUMAN:TFAP2A                       15 A       ChIP-Seq     
    ## 10 AP2B_HUMAN… NA    HUMAN:TFAP2B                       10 B       Integrative  
    ## # ℹ 762 more rows
    ## # ℹ 7 more variables: `Best auROC (human)` <dbl>, `TF family` <chr>,
    ## #   `TF subfamily` <chr>, HGNC <chr>, EntrezGene <chr>, `UniProt ID` <chr>,
    ## #   `UniProt AC` <chr>

Tidy up a bit

``` r
HM.TFs %>% 
  select(`Transcription factor`, `TF family`, `UniProt AC`, `UniProt ID`, `Best auROC (human)` ) %>% 
  rename(swissprot.id = `UniProt AC` ) %>% 
  distinct(swissprot.id, .keep_all = T) -> HM.TFs

HM.TFs
```

    ## # A tibble: 680 × 5
    ##    `Transcription factor` `TF family`                  swissprot.id `UniProt ID`
    ##    <chr>                  <chr>                        <chr>        <chr>       
    ##  1 HUMAN:AHR              PAS domain factors{1.2.5}    P35869       AHR_HUMAN   
    ##  2 HUMAN:AIRE             AIRE{5.3.1}                  O43918       AIRE_HUMAN  
    ##  3 HUMAN:ALX1             Paired-related HD factors{3… Q15699       ALX1_HUMAN  
    ##  4 HUMAN:ALX3             Paired-related HD factors{3… O95076       ALX3_HUMAN  
    ##  5 HUMAN:ALX4             Paired-related HD factors{3… Q9H161       ALX4_HUMAN  
    ##  6 HUMAN:AR               Steroid hormone receptors (… P10275       ANDR_HUMAN  
    ##  7 HUMAN:TFAP2A           AP-2{1.3.1}                  P05549       AP2A_HUMAN  
    ##  8 HUMAN:TFAP2B           AP-2{1.3.1}                  Q92481       AP2B_HUMAN  
    ##  9 HUMAN:TFAP2C           AP-2{1.3.1}                  Q92754       AP2C_HUMAN  
    ## 10 HUMAN:TFAP2D           AP-2{1.3.1}                  Q7Z6R9       AP2D_HUMAN  
    ## # ℹ 670 more rows
    ## # ℹ 1 more variable: `Best auROC (human)` <dbl>
…
Next, add those TFs to the HOCOMOCO database.

``` r
tibble(swissprot.id = Jaspar.Uniprot) %>% 
  semi_join(SP.database, by = c("swissprot.id" = "Entry")) %>% 
  full_join(HM.TFs, by = "swissprot.id") %>% 
  replace_na(list(`TF family` = "Jaspar")) -> Combined.TFs

Combined.TFs
```

    ## # A tibble: 949 × 5
    ##    swissprot.id `Transcription factor` `TF family`                  `UniProt ID`
    ##    <chr>        <chr>                  <chr>                        <chr>       
    ##  1 P26367       HUMAN:PAX6             Paired plus homeo domain{3.… PAX6_HUMAN  
    ##  2 P35398       HUMAN:RORA             Thyroid hormone receptor-re… RORA_HUMAN  
    ##  3 P11473       HUMAN:VDR              Thyroid hormone receptor-re… VDR_HUMAN   
    ##  4 P19793       HUMAN:RXRA             RXR-related receptors (NR2)… RXRA_HUMAN  
    ##  5 Q04864       HUMAN:REL              NF-kappaB-related factors{6… REL_HUMAN   
    ##  6 Q04206       HUMAN:RELA             NF-kappaB-related factors{6… TF65_HUMAN  
    ##  7 P19793       HUMAN:RXRA             RXR-related receptors (NR2)… RXRA_HUMAN  
    ##  8 P55055       HUMAN:NR1H2            Thyroid hormone receptor-re… NR1H2_HUMAN 
    ##  9 P08651       HUMAN:NFIC             Nuclear factor 1{7.1.2}      NFIC_HUMAN  
    ## 10 P31314       HUMAN:TLX1             NK-related factors{3.1.2}    TLX1_HUMAN  
    ## # ℹ 939 more rows
    ## # ℹ 1 more variable: `Best auROC (human)` <dbl>
…
Apply the functiona and get the average of the ratio’s across the cell
types

``` r
dat %>% 
  mutate(MS = map(MS, format_MS_data)) %>% 
  unnest(MS) %>% 
  group_by(Accession) %>% 
  summarise(ratio.area = mean(ratio.area)) -> ratios.averages

ratios.averages
```

    ## # A tibble: 5,676 × 2
    ##    Accession  ratio.area
    ##    <chr>           <dbl>
    ##  1 A0A024QZP7      0.662
    ##  2 A0A024R7P0     11.2  
    ##  3 A0A024R7W5     -3.41 
    ##  4 A0A067XG54      1.21 
    ##  5 A0A075B6P0      0    
    ##  6 A0A075B738      1.05 
    ##  7 A0A075B784     11.2  
    ##  8 A0A075B7F8      3.22 
    ##  9 A0A087WSW7     12.4  
    ## 10 A0A087WSY5      0    
    ## # ℹ 5,666 more rows
…
``` r
categorised.dat %>% 
  mutate(TF = case_when(category != "RBP" ~ "TF",
                   TRUE ~ "other"),
         RBP = case_when(number.RBP.exps > 0 ~ "RBP",
                         TRUE ~ "other")) %>% 
  pivot_longer(c(TF, RBP), names_to = "columns", values_to = "class") %>% 
  mutate(category = factor(category, levels = c("DRBP", "RBP", "DBP"))) %>% 
  filter(class != "other") -> plot.dat

plot.dat
```

    ## # A tibble: 6,074 × 8
    ##    swissprot.id UNIQUE   pfam.desc   category number.RBP.exps ratio.area columns
    ##    <chr>        <chr>    <chr>       <fct>              <int>      <dbl> <chr>  
    ##  1 A0AV96       RBM47    RNA recogn… RBP                   18      NA    RBP    
    ##  2 A0AVK6       E2F8     E2F/DP fam… DBP                    0      NA    TF     
    ##  3 A0AVT1       UBA6     Ubiquitin-… RBP                    5      NA    RBP    
    ##  4 A0FGR8       ESYT2    Synaptotag… DRBP                   4       8.33 TF     
    ##  5 A0FGR8       ESYT2    Synaptotag… DRBP                   4       8.33 RBP    
    ##  6 A0PJY2       FEZF1    C2H2-type … DBP                    0      NA    TF     
    ##  7 A1L020       MEX3A    Zinc finge… RBP                    7      NA    RBP    
    ##  8 A1L390       PLEKHG3  RhoGEF dom… RBP                    1      NA    RBP    
    ##  9 A1X283       SH3PXD2B SH3 domain… RBP                    1      -8.74 RBP    
    ## 10 A1YPR0       ZBTB7C   BTB/POZ do… DBP                    0      NA    TF     
    ## # ℹ 6,064 more rows
    ## # ℹ 1 more variable: class <chr>
…
Now will test for enrichment of pfam ids by performing Chi Square tests.

First, there are multiple identifiers representing C2H2-type zinc finger
domains, consolidate those.

``` r
categorised.dat %>% 
  separate_longer_delim(pfam.desc, "|") %>% 
  mutate(pfam.desc = case_when(str_detect(pfam.desc, "C2H2") ~ "C2H2-type zinc finger",
                               TRUE ~ pfam.desc)) -> combined.table

combined.table
```

    ## # A tibble: 9,480 × 6
    ##    swissprot.id UNIQUE pfam.desc             category number.RBP.exps ratio.area
    ##    <chr>        <chr>  <chr>                 <chr>              <int>      <dbl>
    ##  1 A0AV96       RBM47  RNA recognition moti… RBP                   18      NA   
    ##  2 A0AVK6       E2F8   E2F/DP family winged… DBP                    0      NA   
    ##  3 A0AVT1       UBA6   Ubiquitin-activating… RBP                    5      NA   
    ##  4 A0AVT1       UBA6   Ubiquitin-activating… RBP                    5      NA   
    ##  5 A0AVT1       UBA6   Ubiquitin-activating… RBP                    5      NA   
    ##  6 A0AVT1       UBA6   ThiF family           RBP                    5      NA   
    ##  7 A0AVT1       UBA6   Ubiquitin fold domain RBP                    5      NA   
    ##  8 A0FGR8       ESYT2  Synaptotagmin-like m… DRBP                   4       8.33
    ##  9 A0FGR8       ESYT2  C2 domain             DRBP                   4       8.33
    ## 10 A0PJY2       FEZF1  C2H2-type zinc finger DBP                    0      NA   
    ## # ℹ 9,470 more rows
…
Combine the results, and output

``` r
list(results.chi.dna, results.chi.rna, results.chi.all) %>% 
  reduce(full_join, by = "pfam") -> combined.results

write_tsv(combined.results, "Output/chi_results_DRBP_extended.tsv")

combined.results
```

    ## # A tibble: 2,385 × 13
    ##    pfam           observed.dna expected.dna residual.dna  p.val.dna observed.rna
    ##    <chr>                 <int>        <dbl>        <dbl>      <dbl>        <int>
    ##  1 RNA recogniti…           14        3.80          5.24   4.82e- 9           14
    ##  2 E2F/DP family…            0        2.98         -1.73   9.14e- 2            0
    ##  3 Ubiquitin-act…            0        0           NaN    NaN                   0
    ##  4 Ubiquitin-act…            0        0           NaN    NaN                   0
    ##  5 Ubiquitin-act…            0        0           NaN    NaN                   0
    ##  6 ThiF family               0        0           NaN    NaN                   0
    ##  7 Ubiquitin fol…            0        0           NaN    NaN                   0
    ##  8 Synaptotagmin…            1        0.271         1.40   6.07e- 1            1
    ##  9 C2 domain                 2        0.542         1.98   1.27e- 1            2
    ## 10 C2H2-type zin…           93      168.           -5.76   2.10e-15           93
    ## # ℹ 2,375 more rows
    ## # ℹ 7 more variables: expected.rna <dbl>, residual.rna <dbl>, p.val.rna <dbl>,
    ## #   observed.all <int>, expected.all <dbl>, residual.all <dbl>, p.val.all <dbl>
…
Grab the columns needed for plotting

``` r
combined.results %>% 
  transmute( pfam = pfam, residual = residual.rna, p.val = p.val.rna, comparison = "RNA") -> tmp

combined.results %>% 
  transmute(pfam = pfam, residual = residual.dna, p.val = p.val.dna, comparison = "DNA") %>% 
  bind_rows(tmp) -> combined.results

combined.results
```

    ## # A tibble: 4,770 × 4
    ##    pfam                                            residual     p.val comparison
    ##    <chr>                                              <dbl>     <dbl> <chr>     
    ##  1 RNA recognition motif. (a.k.a. RRM, RBD, or RN…     5.24  4.82e- 9 DNA       
    ##  2 E2F/DP family winged-helix DNA-binding domain      -1.73  9.14e- 2 DNA       
    ##  3 Ubiquitin-activating enzyme E1 FCCH domain         NA    NA        DNA       
    ##  4 Ubiquitin-activating enzyme E1 four-helix bund…    NA    NA        DNA       
    ##  5 Ubiquitin-activating enzyme active site            NA    NA        DNA       
    ##  6 ThiF family                                        NA    NA        DNA       
    ##  7 Ubiquitin fold domain                              NA    NA        DNA       
    ##  8 Synaptotagmin-like mitochondrial-lipid-binding…     1.40  6.07e- 1 DNA       
    ##  9 C2 domain                                           1.98  1.27e- 1 DNA       
    ## 10 C2H2-type zinc finger                              -5.76  2.10e-15 DNA       
    ## # ℹ 4,760 more rows
Filter for highly significant

``` r
combined.results %>% 
  group_by(pfam) %>% 
  filter(any(p.val < 0.0001)) %>% 
  ungroup() %>% 
  mutate(residual = case_when(residual > 6 ~ 6,
                                  TRUE ~ residual)) -> for.plot


for.plot
```

    ## # A tibble: 42 × 4
    ##    pfam                                             residual    p.val comparison
    ##    <chr>                                               <dbl>    <dbl> <chr>     
    ##  1 RNA recognition motif. (a.k.a. RRM, RBD, or RNP…    5.24  4.82e- 9 DNA       
    ##  2 C2H2-type zinc finger                              -5.76  2.10e-15 DNA       
    ##  3 KRAB box                                           -4.67  3.23e- 9 DNA       
    ##  4 Homeobox domain                                    -6.29  1.76e-14 DNA       
    ##  5 WD domain, G-beta repeat                            4.13  4.44e- 6 DNA       
    ##  6 Helix-loop-helix DNA-binding domain                -4.69  3.54e- 8 DNA       
    ##  7 SCAN domain                                        -1.84  4.18e- 2 DNA       
    ##  8 Zinc-finger double domain                          -0.983 3.54e- 1 DNA       
    ##  9 Helicase conserved C-terminal domain                3.91  1.54e- 5 DNA       
    ## 10 SNF2 family N-terminal domain                       3.18  5.80e- 4 DNA       
    ## # ℹ 32 more rows
…
